Tidyverse 3: Grouping and Summarizing Data – OSU Code Club
…
Grouping solution (click here)

.by = c(cut, color, clarity) will group by these 3 columns at once.

Solution (click here)

After summarizing, it makes sense to arrange in descending order by price, so you can see the cut-color-clarity combinations with the most expensive diamonds:

diamonds |>
  summarize(price = mean(price),
            .by = c(cut, color, clarity)) |>
  arrange(desc(price))

# A tibble: 276 × 4
   cut       color clarity  price
   <ord>     <ord> <ord>    <dbl>
 1 Very Good D     IF      10298.
 2 Good      D     IF      10030.
 3 Ideal     J     I1       9454 
 4 Premium   D     IF       9056.
 5 Premium   J     SI2      7550.
 6 Fair      D     I1       7383 
 7 Premium   J     VVS1     7244.
 8 Ideal     I     SI2      7192.
 9 Premium   I     VS2      7156.
10 Premium   I     SI2      7148.
# ℹ 266 more rows
…
Why are we getting more than one diamond per cut in some cases? (Click to see the answer)

Because of ties in the cut value. (We’ll get back to this in the next set of exercises.)

You can get more than just the single highest (slice_max()) / lowest (slice_min()) value per group with the n= argument, and can get a specific proportion of rows with prop=:

# Get the 3 highest-depth diamonds for each value of cut
diamonds |>
  slice_max(depth, by = cut, n = 3)

# A tibble: 280 × 10
   carat cut     color clarity depth table price     x     y     z
   <dbl> <ord>   <ord> <ord>   <dbl> <dbl> <int> <dbl> <dbl> <dbl>
 1  2.01 Ideal   I     VS2      66.7    56 15729  7.75  7.65  5.14
 2  0.71 Ideal   E     SI2      65.5    55  2511  5.62  5.56  3.66
 3  3.01 Ideal   J     I1       65.4    60 16538  8.99  8.93  5.86
 4  0.8  Premium G     SI1      63      59  2760  5.9   5.81  3.69
 5  0.9  Premium I     VS2      63      58  2761  6.16  6.12  3.87
 6  0.72 Premium I     IF       63      57  2795  5.72  5.7   3.6 
 7  0.72 Premium E     VS2      63      55  2802  5.79  5.61  3.59
 8  0.7  Premium E     VS2      63      60  2818  5.64  5.6   3.54
 9  0.81 Premium G     SI1      63      60  2832  5.87  5.81  3.68
10  0.7  Premium G     VS1      63      60  2838  5.64  5.57  3.53
# ℹ 270 more rows

# Get the 1% lowest-carat diamonds for each value of color
diamonds |>
  slice_min(carat, by = color, prop = 0.01)

# A tibble: 926 × 10
   carat cut       color clarity depth table price     x     y     z
   <dbl> <ord>     <ord> <ord>   <dbl> <dbl> <int> <dbl> <dbl> <dbl>
 1  0.2  Premium   E     SI2      60.2    62   345  3.79  3.75  2.27
 2  0.2  Premium   E     VS2      59.8    62   367  3.79  3.77  2.26
 3  0.2  Premium   E     VS2      59      60   367  3.81  3.78  2.24
 4  0.2  Premium   E     VS2      61.1    59   367  3.81  3.78  2.32
 5  0.2  Premium   E     VS2      59.7    62   367  3.84  3.8   2.28
 6  0.2  Ideal     E     VS2      59.7    55   367  3.86  3.84  2.3 
 7  0.2  Very Good E     VS2      63.4    59   367  3.74  3.71  2.36
 8  0.2  Ideal     E     VS2      62.2    57   367  3.76  3.73  2.33
 9  0.21 Premium   E     SI1      59.8    61   326  3.89  3.84  2.31
10  0.21 Very Good E     VS2      63.2    54   386  3.82  3.78  2.4 
# ℹ 916 more rows
…
# A tibble: 5 × 2
  cut           n
  <ord>     <int>
1 Ideal     21551
2 Premium   13791
3 Very Good 12082
4 Good       4906
5 Fair       1610

And you can also create counts for value combinations across multiple columns:

diamonds |> count(cut, color)

# A tibble: 35 × 3
   cut   color     n
   <ord> <ord> <int>
 1 Fair  D       163
 2 Fair  E       224
 3 Fair  F       312
 4 Fair  G       314
 5 Fair  H       303
 6 Fair  I       175
 7 Fair  J       119
 8 Good  D       662
 9 Good  E       933
10 Good  F       909
# ℹ 25 more rows
…
6.2 Random diamonds

Use slice_sample() to get 5 random diamonds for each combination of cut, color and clarity.

Solution (click here)

diamonds |>
  slice_sample(n = 5, by = c(cut, color, clarity))

# A tibble: 1,342 × 10
   carat cut     color clarity depth table price     x     y     z
   <dbl> <ord>   <ord> <ord>   <dbl> <dbl> <int> <dbl> <dbl> <dbl>
 1  1.2  Ideal   E     SI2      61.3  56    6006  6.85  6.88  4.21
 2  1.02 Ideal   E     SI2      62.6  54.6  4983  6.4   6.44  4.02
 3  0.78 Ideal   E     SI2      61    56    3053  5.92  5.98  3.63
 4  1.11 Ideal   E     SI2      61.2  57    4969  6.7   6.74  4.11
 5  1    Ideal   E     SI2      60.7  55    4077  6.39  6.33  3.86
 6  0.71 Premium E     SI1      60.3  60    2674  5.77  5.74  3.47
 7  0.82 Premium E     SI1      61.2  61    3211  5.98  5.95  3.65
 8  0.51 Premium E     SI1      61.3  54    1546  5.18  5.13  3.16
 9  0.57 Premium E     SI1      62.2  55    1590  5.36  5.31  3.32
10  0.41 Premium E     SI1      62.4  58     755  4.75  4.77  2.97
# ℹ 1,332 more rows
…
Hints (click here)

You’ll have to filter() first.

Can you sort in reverse order with count()? If not, you’ll have to use a separate arrange()

Solution (click here)

diamonds |>
  filter(price < 5000) |> 
  count(clarity, color) |>
  arrange(n)

# A tibble: 56 × 3
   clarity color     n
   <ord>   <ord> <int>
 1 I1      J        26
 2 I1      D        32
 3 IF      D        39
 4 IF      J        40
 5 VVS1    J        51
 6 I1      I        65
 7 VVS2    J        67
 8 I1      E        84
 9 I1      H       108
10 I1      G       114
# ℹ 46 more rows

6.4 Bonus: sort then slice

slice_head() will print the first-occurring row(s), and its twin slice_tail() prints the last row(s). In combination with sorting, these can give more flexibility than the min-max functions.

For each color, use arrange() and slice_head() to get the 3 diamonds with the highest carat, with ties in carat broken by price (highest first).

Solution (click here)

diamonds |>
  arrange(desc(carat), desc(price)) |>
  slice_head(n = 3, by = color)

# A tibble: 21 × 10
   carat cut       color clarity depth table price     x     y     z
   <dbl> <ord>     <ord> <ord>   <dbl> <dbl> <int> <dbl> <dbl> <dbl>
 1  5.01 Fair      J     I1       65.5    59 18018 10.7  10.5   6.98
 2  4.5  Fair      J     I1       65.8    58 18531 10.2  10.2   6.72
 3  4.01 Premium   J     I1       62.5    62 15223 10.0   9.94  6.24
 4  4.13 Fair      H     I1       64.8    61 17329 10     9.85  6.43
 5  3.65 Fair      H     I1       67.1    53 11668  9.53  9.48  6.38
 6  3.5  Ideal     H     I1       62.8    57 12587  9.65  9.59  6.03
 7  4.01 Premium   I     I1       61      61 15223 10.1  10.1   6.17
 8  4    Very Good I     I1       63.3    58 15984 10.0   9.94  6.31
 9  3.67 Premium   I     I1       62.4    56 16193  9.86  9.81  6.13
10  3.4  Fair      D     I1       66.8    52 15964  9.42  9.34  6.27
# ℹ 11 more rows
…
