OSU Code Club - Data Wrangling 3: Counting and Summarizing Data by Group
…
We’ll have to install that package first, which should be quick:

install.packages("palmerpenguins")

Now we’re ready to load the package:

library(palmerpenguins)

Taking a look at the data set

Once you’ve loaded the palmerpenguins package, you will have a data frame called penguins at your disposal — let’s take a look:

penguins

# A tibble: 344 × 8
   species island    bill_length_mm bill_depth_mm flipper_length_mm body_mass_g
   <fct>   <fct>              <dbl>         <dbl>             <int>       <int>
 1 Adelie  Torgersen           39.1          18.7               181        3750
 2 Adelie  Torgersen           39.5          17.4               186        3800
 3 Adelie  Torgersen           40.3          18                 195        3250
 4 Adelie  Torgersen           NA            NA                  NA          NA
 5 Adelie  Torgersen           36.7          19.3               193        3450
 6 Adelie  Torgersen           39.3          20.6               190        3650
 7 Adelie  Torgersen           38.9          17.8               181        3625
 8 Adelie  Torgersen           39.2          19.6               195        4675
 9 Adelie  Torgersen           34.1          18.1               193        3475
10 Adelie  Torgersen           42            20.2               190        4250
# ℹ 334 more rows
# ℹ 2 more variables: sex <fct>, year <int>
…
5 Exercises I

5.1 count()

A) Use count() to get the number of penguins for each combination of species, year and sex.

Solution (click here)

penguins |> count(species, year, sex)

# A tibble: 22 × 4
   species    year sex        n
   <fct>     <int> <fct>  <int>
 1 Adelie     2007 female    22
 2 Adelie     2007 male      22
 3 Adelie     2007 <NA>       6
 4 Adelie     2008 female    25
 5 Adelie     2008 male      25
 6 Adelie     2009 female    26
 7 Adelie     2009 male      26
 8 Chinstrap  2007 female    13
 9 Chinstrap  2007 male      13
10 Chinstrap  2008 female     9
# ℹ 12 more rows
…
9.2 Random penguins

Use slice_sample() to get 5 random penguins for each combination of year and island.

Solution (click here)

penguins_noNA |>
  slice_sample(n = 5, by = c(year, island))

# A tibble: 45 × 8
   species island    bill_length_mm bill_depth_mm flipper_length_mm body_mass_g
   <fct>   <fct>              <dbl>         <dbl>             <int>       <int>
 1 Adelie  Torgersen           34.6          21.1               198        4400
 2 Adelie  Torgersen           36.7          19.3               193        3450
 3 Adelie  Torgersen           39.2          19.6               195        4675
 4 Adelie  Torgersen           39.1          18.7               181        3750
 5 Adelie  Torgersen           40.3          18                 195        3250
 6 Gentoo  Biscoe              40.9          13.7               214        4650
 7 Gentoo  Biscoe              50            15.3               220        5550
 8 Gentoo  Biscoe              46.7          15.3               219        5200
 9 Gentoo  Biscoe              47.6          14.5               215        5400
10 Gentoo  Biscoe              42.9          13.1               215        5000
# ℹ 35 more rows
# ℹ 2 more variables: sex <fct>, year <int>
…
