Tidyverse 4: Tidy Data and Pivoting – OSU Code Club
…
A variable contains values of an attribute that was measured (i.e., length, sex, pH, color)

An observation contains all the values measured on the same thing (unit) (i.e., person, sample, day)

Examples:

If I’m measuring the height of a population each person will be one observation and the variable I am measuring is height

height <- tibble(
 height_in = c(rnorm(43, m=67, sd=8))
 )

height

# A tibble: 43 × 1
   height_in
       <dbl>
 1      67.7
 2      53.2
 3      66.6
 4      69.8
 5      69.1
 6      76.0
 7      55.7
 8      66.9
 9      69.6
10      65.8
# ℹ 33 more rows

If I’m counting the number of geese I see on campus throughout the year every day, the variables will be number of geese I see, and the day I count them on. The observation will be one instance of me counting geese on a specific day

geese <- tibble(
 day = seq(1:365),
 geese_number = c(trunc(rnorm(365, m=24, sd=10)))
 )

geese

# A tibble: 365 × 2
     day geese_number
   <int>        <dbl>
 1     1           44
 2     2           16
 3     3           27
 4     4           22
 5     5            9
 6     6           15
 7     7            3
 8     8           16
 9     9           20
10    10           47
# ℹ 355 more rows
…
year

population

This format of data is sometimes called wide data, where the row of column names (the very first row) actually contains variable values.

In this data it doesn’t look very wide, but imagine how much wider if data was taken every year up to or past this year. Wide data tends to get wide very quickly.

For an example of very wide data, look at the who dataset

data(who)
 who

# A tibble: 7,240 × 60
   country  iso2  iso3   year new_sp_m014 new_sp_m1524 new_sp_m2534 new_sp_m3544
   <chr>    <chr> <chr> <dbl>       <dbl>        <dbl>        <dbl>        <dbl>
 1 Afghani… AF    AFG    1980          NA           NA           NA           NA
 2 Afghani… AF    AFG    1981          NA           NA           NA           NA
 3 Afghani… AF    AFG    1982          NA           NA           NA           NA
 4 Afghani… AF    AFG    1983          NA           NA           NA           NA
 5 Afghani… AF    AFG    1984          NA           NA           NA           NA
 6 Afghani… AF    AFG    1985          NA           NA           NA           NA
 7 Afghani… AF    AFG    1986          NA           NA           NA           NA
 8 Afghani… AF    AFG    1987          NA           NA           NA           NA
 9 Afghani… AF    AFG    1988          NA           NA           NA           NA
10 Afghani… AF    AFG    1989          NA           NA           NA           NA
# ℹ 7,230 more rows
# ℹ 52 more variables: new_sp_m4554 <dbl>, new_sp_m5564 <dbl>,
#   new_sp_m65 <dbl>, new_sp_f014 <dbl>, new_sp_f1524 <dbl>,
#   new_sp_f2534 <dbl>, new_sp_f3544 <dbl>, new_sp_f4554 <dbl>,
#   new_sp_f5564 <dbl>, new_sp_f65 <dbl>, new_sn_m014 <dbl>,
#   new_sn_m1524 <dbl>, new_sn_m2534 <dbl>, new_sn_m3544 <dbl>,
#   new_sn_m4554 <dbl>, new_sn_m5564 <dbl>, new_sn_m65 <dbl>, …
…
NA values are liekly to mess up your analysis here - check the pivot_longer() help file to see what arguments are available to remove NA values

Solution (click here)

who |> 
  pivot_longer(cols = !c(country:year), 
               names_to = "demographic", 
               values_to = "tb_counts", 
               values_drop_na = TRUE) |> 
  summarise(count = sum(tb_counts),
            .by = c(country,year)) |> 
  filter(year=='2011') |> 
  arrange(desc(count))

# A tibble: 210 × 3
   country                                year  count
   <chr>                                 <dbl>  <dbl>
 1 China                                  2011 865059
 2 India                                  2011 642311
 3 Indonesia                              2011 313601
 4 South Africa                           2011 289111
 5 Bangladesh                             2011 148198
 6 Pakistan                               2011 127571
 7 Russian Federation                     2011 104320
 8 Philippines                            2011  93580
 9 Democratic People's Republic of Korea  2011  85564
10 Kenya                                  2011  84548
# ℹ 200 more rows
…
Hint (click here)

tampered_diamonds |> 
  pivot_wider(names_from = parameter, values_from = value)

Warning: Values from `value` are not uniquely identified; output will contain list-cols.
• Use `values_fn = list` to suppress this warning.
• Use `values_fn = {summary_fun}` to summarise duplicates.
• Use the following dplyr code to identify duplicates.
  {data} |>
  dplyr::summarise(n = dplyr::n(), .by = c(cut, color, clarity, parameter)) |>
  dplyr::filter(n > 1L)

# A tibble: 276 × 10
   cut       color clarity carat       depth       table price x     y     z    
   <ord>     <ord> <ord>   <list>      <list>      <lis> <lis> <lis> <lis> <lis>
 1 Ideal     E     SI2     <dbl [469]> <dbl [469]> <dbl> <dbl> <dbl> <dbl> <dbl>
 2 Premium   E     SI1     <dbl [614]> <dbl [614]> <dbl> <dbl> <dbl> <dbl> <dbl>
 3 Good      E     VS1     <dbl [89]>  <dbl [89]>  <dbl> <dbl> <dbl> <dbl> <dbl>
 4 Premium   I     VS2     <dbl [315]> <dbl [315]> <dbl> <dbl> <dbl> <dbl> <dbl>
 5 Good      J     SI2     <dbl [53]>  <dbl [53]>  <dbl> <dbl> <dbl> <dbl> <dbl>
 6 Very Good J     VVS2    <dbl [29]>  <dbl [29]>  <dbl> <dbl> <dbl> <dbl> <dbl>
 7 Very Good I     VVS1    <dbl [69]>  <dbl [69]>  <dbl> <dbl> <dbl> <dbl> <dbl>
 8 Very Good H     SI1     <dbl [547]> <dbl [547]> <dbl> <dbl> <dbl> <dbl> <dbl>
 9 Fair      E     VS2     <dbl [42]>  <dbl [42]>  <dbl> <dbl> <dbl> <dbl> <dbl>
10 Very Good H     VS1     <dbl [257]> <dbl [257]> <dbl> <dbl> <dbl> <dbl> <dbl>
# ℹ 266 more rows

Uh-oh! Uh-oh! With what we have learned so far, we cant undo pivot_longer with pivot_wider here! Can you figure out why?

Solution (click here)

# code from the error read out
tampered_diamonds %>%
  dplyr::group_by(cut, color, clarity, parameter) %>%
  dplyr::summarise(n = dplyr::n(), .groups = "drop")  %>%
  dplyr::filter(n > 1L)

# A tibble: 1,897 × 5
   cut   color clarity parameter     n
   <ord> <ord> <ord>   <chr>     <int>
 1 Fair  D     I1      carat         4
 2 Fair  D     I1      depth         4
 3 Fair  D     I1      price         4
 4 Fair  D     I1      table         4
 5 Fair  D     I1      x             4
 6 Fair  D     I1      y             4
 7 Fair  D     I1      z             4
 8 Fair  D     SI2     carat        56
 9 Fair  D     SI2     depth        56
10 Fair  D     SI2     price        56
# ℹ 1,887 more rows

# example of multiple replicates
tampered_diamonds |> 
  filter(cut=="Premium", color == "D", clarity=="VS2")

# A tibble: 2,373 × 5
   cut     color clarity parameter  value
   <ord>   <ord> <ord>   <chr>      <dbl>
 1 Premium D     VS2     carat       0.22
 2 Premium D     VS2     depth      59.3 
 3 Premium D     VS2     table      62   
 4 Premium D     VS2     price     404   
 5 Premium D     VS2     x           3.91
 6 Premium D     VS2     y           3.88
 7 Premium D     VS2     z           2.31
 8 Premium D     VS2     carat       0.71
 9 Premium D     VS2     depth      62.5 
10 Premium D     VS2     table      60   
# ℹ 2,363 more rows
…
