OSU Code Club - Tidyverse 1: Introduction to the tidyverse
…
?select()

The arguments to select() are:

select(.data, ...)

This tells us that select() accepts a data frame (that’s good, diamonds is one), and we can pass many other expressions.

Let’s select first by name.

select(.data = diamonds, # our df
       carat, cut, price) # the columns we want to pull

# A tibble: 53,940 × 3
   carat cut       price
   <dbl> <ord>     <int>
 1  0.23 Ideal       326
 2  0.21 Premium     326
 3  0.23 Good        327
 4  0.29 Premium     334
 5  0.31 Good        335
 6  0.24 Very Good   336
 7  0.24 Very Good   336
 8  0.26 Very Good   337
 9  0.22 Fair        337
10  0.23 Very Good   338
# ℹ 53,930 more rows

Or, we could more simply use the pipe |> or %>%

diamonds |> 
  select(carat, cut, price)

# A tibble: 53,940 × 3
   carat cut       price
   <dbl> <ord>     <int>
 1  0.23 Ideal       326
 2  0.21 Premium     326
 3  0.23 Good        327
 4  0.29 Premium     334
 5  0.31 Good        335
 6  0.24 Very Good   336
 7  0.24 Very Good   336
 8  0.26 Very Good   337
 9  0.22 Fair        337
10  0.23 Very Good   338
# ℹ 53,930 more rows

We can read this as, take the dataset diamonds, then select the columns carat, cut, and price. That was pretty easy to read!

Note that when you use the pipe, the potential column names will auto-fill for you after you type 3 letters. You should use this option as it will help prevent misspellings. You can also hit tab to scroll through all the potential objects to select.

We can also select by index. In general I would recommend against this because its really hard to remember which column indices are which variables today, nevermind returning back to old code 1 year from now. Still I will show you how.

diamonds |> 
  select(c(1, 2, 7)) # you could also use the colon syntax if your columns are sequential

# A tibble: 53,940 × 3
   carat cut       price
   <dbl> <ord>     <int>
 1  0.23 Ideal       326
 2  0.21 Premium     326
 3  0.23 Good        327
 4  0.29 Premium     334
 5  0.31 Good        335
 6  0.24 Very Good   336
 7  0.24 Very Good   336
 8  0.26 Very Good   337
 9  0.22 Fair        337
10  0.23 Very Good   338
# ℹ 53,930 more rows
…
everything(): picks all variables

starts_with(): starts with some prefix

contains(): contains a specific string

where(): selects columns where the statement given in the argument is TRUE

Here is an example of using where() to select only the columns that are numeric. The function where() asks whether the following function is TRUE or FALSE, and keeps only the occurences that evaluate to TRUE.

diamonds |>
  select(where(is.numeric))

# A tibble: 53,940 × 7
   carat depth table price     x     y     z
   <dbl> <dbl> <dbl> <int> <dbl> <dbl> <dbl>
 1  0.23  61.5    55   326  3.95  3.98  2.43
 2  0.21  59.8    61   326  3.89  3.84  2.31
 3  0.23  56.9    65   327  4.05  4.07  2.31
 4  0.29  62.4    58   334  4.2   4.23  2.63
 5  0.31  63.3    58   335  4.34  4.35  2.75
 6  0.24  62.8    57   336  3.94  3.96  2.48
 7  0.24  62.3    57   336  3.95  3.98  2.47
 8  0.26  61.9    55   337  4.07  4.11  2.53
 9  0.22  65.1    61   337  3.87  3.78  2.49
10  0.23  59.4    61   338  4     4.05  2.39
# ℹ 53,930 more rows
…
Sometimes you want to select observations (rows) based on values. To do this you use filter(). Try not to confuse this with select().

select() picks columns, while filter() picks rows.

The function filter() will keep only observations that meet your filtering criteria.

Let’s say we want to only keep the diamonds that are bigger than 3 carats.

# without the pipe
# i find this harder to read
filter(.data = diamonds, 
       carat > 3)

# A tibble: 32 × 10
   carat cut     color clarity depth table price     x     y     z
   <dbl> <ord>   <ord> <ord>   <dbl> <dbl> <int> <dbl> <dbl> <dbl>
 1  3.01 Premium I     I1       62.7    58  8040  9.1   8.97  5.67
 2  3.11 Fair    J     I1       65.9    57  9823  9.15  9.02  5.98
 3  3.01 Premium F     I1       62.2    56  9925  9.24  9.13  5.73
 4  3.05 Premium E     I1       60.9    58 10453  9.26  9.25  5.66
 5  3.02 Fair    I     I1       65.2    56 10577  9.11  9.02  5.91
 6  3.01 Fair    H     I1       56.1    62 10761  9.54  9.38  5.31
 7  3.65 Fair    H     I1       67.1    53 11668  9.53  9.48  6.38
 8  3.24 Premium H     I1       62.1    58 12300  9.44  9.4   5.85
 9  3.22 Ideal   I     I1       62.6    55 12545  9.49  9.42  5.92
10  3.5  Ideal   H     I1       62.8    57 12587  9.65  9.59  6.03
# ℹ 22 more rows

# the pipe/my preferred way
diamonds |> 
  filter(carat > 3)

# A tibble: 32 × 10
   carat cut     color clarity depth table price     x     y     z
   <dbl> <ord>   <ord> <ord>   <dbl> <dbl> <int> <dbl> <dbl> <dbl>
 1  3.01 Premium I     I1       62.7    58  8040  9.1   8.97  5.67
 2  3.11 Fair    J     I1       65.9    57  9823  9.15  9.02  5.98
 3  3.01 Premium F     I1       62.2    56  9925  9.24  9.13  5.73
 4  3.05 Premium E     I1       60.9    58 10453  9.26  9.25  5.66
 5  3.02 Fair    I     I1       65.2    56 10577  9.11  9.02  5.91
 6  3.01 Fair    H     I1       56.1    62 10761  9.54  9.38  5.31
 7  3.65 Fair    H     I1       67.1    53 11668  9.53  9.48  6.38
 8  3.24 Premium H     I1       62.1    58 12300  9.44  9.4   5.85
 9  3.22 Ideal   I     I1       62.6    55 12545  9.49  9.42  5.92
10  3.5  Ideal   H     I1       62.8    57 12587  9.65  9.59  6.03
# ℹ 22 more rows
…
# include diamonds that are bigger than 3 carats OR a Premium cut
# "|" (above the return key) is the symbol for "or"
diamonds |> 
  filter(carat > 3 | cut == "Premium")

# A tibble: 13,810 × 10
   carat cut     color clarity depth table price     x     y     z
   <dbl> <ord>   <ord> <ord>   <dbl> <dbl> <int> <dbl> <dbl> <dbl>
 1  0.21 Premium E     SI1      59.8    61   326  3.89  3.84  2.31
 2  0.29 Premium I     VS2      62.4    58   334  4.2   4.23  2.63
 3  0.22 Premium F     SI1      60.4    61   342  3.88  3.84  2.33
 4  0.2  Premium E     SI2      60.2    62   345  3.79  3.75  2.27
 5  0.32 Premium E     I1       60.9    58   345  4.38  4.42  2.68
 6  0.24 Premium I     VS1      62.5    57   355  3.97  3.94  2.47
 7  0.29 Premium F     SI1      62.4    58   403  4.24  4.26  2.65
 8  0.22 Premium E     VS2      61.6    58   404  3.93  3.89  2.41
 9  0.22 Premium D     VS2      59.3    62   404  3.91  3.88  2.31
10  0.3  Premium J     SI2      59.3    61   405  4.43  4.38  2.61
# ℹ 13,800 more rows
…
